{
    "nextId": 4,
    "items": [
        {
          "id": 1,
          "login": "admin",
          "fullname": "Admin User",
          "role": "1",
          "registeredAd": "2020-09-12",
          "avaUrl": "nope",
          "isEnabled": "1"
        },
        {
          "id": 2,
          "login": "guest1",
          "fullname": "Guest the First",
          "role": "0",
          "registeredAd": "2020-10-19",
          "avaUrl": "nope",
          "isEnabled": "0"
        },
        {
          "id": 3,
          "login": "guest2",
          "fullname": "Guest the Second",
          "role": "0",
          "registeredAd": "2020-03-25",
          "avaUrl": "nope",
          "isEnabled": "0"
        }
    ]
}